%YAML 1.1
%TAG !u! tag:unity3d.com,2011:
--- !u!1001 &100100000
Prefab:
  m_ObjectHideFlags: 1
  serializedVersion: 2
  m_Modification:
    m_TransformParent: {fileID: 0}
    m_Modifications: []
    m_RemovedComponents: []
  m_ParentPrefab: {fileID: 0}
  m_RootGameObject: {fileID: 1000011175925476}
  m_IsPrefabParent: 1
--- !u!1 &1000011175925476
GameObject:
  m_ObjectHideFlags: 0
  m_PrefabParentObject: {fileID: 0}
  m_PrefabInternal: {fileID: 100100000}
  serializedVersion: 4
  m_Component:
  - 4: {fileID: 4000011064624252}
  - 114: {fileID: 114000012541869734}
  m_Layer: 0
  m_Name: GameInitialiser
  m_TagString: Untagged
  m_Icon: {fileID: 0}
  m_NavMeshLayer: 0
  m_StaticEditorFlags: 0
  m_IsActive: 1
--- !u!4 &4000011064624252
Transform:
  m_ObjectHideFlags: 1
  m_PrefabParentObject: {fileID: 0}
  m_PrefabInternal: {fileID: 100100000}
  m_GameObject: {fileID: 1000011175925476}
  m_LocalRotation: {x: 0, y: 0, z: 0, w: 1}
  m_LocalPosition: {x: 0, y: 0, z: 0}
  m_LocalScale: {x: 1, y: 1, z: 1}
  m_LocalEulerAnglesHint: {x: 0, y: 0, z: 0}
  m_Children: []
  m_Father: {fileID: 0}
  m_RootOrder: 0
--- !u!114 &114000012541869734
MonoBehaviour:
  m_ObjectHideFlags: 1
  m_PrefabParentObject: {fileID: 0}
  m_PrefabInternal: {fileID: 100100000}
  m_GameObject: {fileID: 1000011175925476}
  m_Enabled: 1
  m_EditorHideFlags: 0
  m_Script: {fileID: 11500000, guid: a342c5656c244944cb64e690901a77c8, type: 3}
  m_Name: 
  m_EditorClassIdentifier: 
  Runtime: {fileID: 0}
  SelectedCharacter: TestCharacter
  Characters:
  - {fileID: 1000012251485034, guid: 5d775e9a95b80d04894618cc43205ecc, type: 2}
  Hud: {fileID: 0}
  FpsController: {fileID: 0}
  HitSound: {fileID: 0}
  Items:
  - {fileID: 1000013423224040, guid: 10b12f36980dffc4cb6626990307bb2a, type: 2}
  - {fileID: 1000011555637366, guid: 8c560e461c40b474bb1efbb6879e1e8c, type: 2}
  - {fileID: 1000012388194392, guid: 760bf2dfaa3ee6d4ba4241c6f9f3ab4c, type: 2}
  - {fileID: 1000011836226362, guid: 6e8891c65f2701442b622d3440350d41, type: 2}
  Character: {fileID: 0}
